;	STMicroelectronics Project file

[Version]
Keyword=ST7Project
Number=1.3

[Project]
Name=03_clock
Toolset=STM8 Cosmic

[Config]
0=Config.0
1=Config.1

[Config.0]
ConfigName=Debug
Target=03_clock.elf
OutputFolder=Debug
Debug=$(TargetFName)

[Config.1]
ConfigName=Release
Target=03_clock.elf
OutputFolder=Release
Debug=$(TargetFName)

[Root]
ElemType=Project
PathName=03_clock
Child=Root.Source Files
Config.0=Root.Config.0
Config.1=Root.Config.1

[Root.Config.0]
Settings.0.0=Root.Config.0.Settings.0
Settings.0.1=Root.Config.0.Settings.1
Settings.0.2=Root.Config.0.Settings.2
Settings.0.3=Root.Config.0.Settings.3
Settings.0.4=Root.Config.0.Settings.4
Settings.0.5=Root.Config.0.Settings.5
Settings.0.6=Root.Config.0.Settings.6
Settings.0.7=Root.Config.0.Settings.7
Settings.0.8=Root.Config.0.Settings.8

[Root.Config.1]
Settings.1.0=Root.Config.1.Settings.0
Settings.1.1=Root.Config.1.Settings.1
Settings.1.2=Root.Config.1.Settings.2
Settings.1.3=Root.Config.1.Settings.3
Settings.1.4=Root.Config.1.Settings.4
Settings.1.5=Root.Config.1.Settings.5
Settings.1.6=Root.Config.1.Settings.6
Settings.1.7=Root.Config.1.Settings.7
Settings.1.8=Root.Config.1.Settings.8

[Root.Config.0.Settings.0]
String.6.0=2022,10,14,10,38,55
String.100.0=ST Assembler Linker
String.100.1=ST7 Cosmic
String.100.2=STM8 Cosmic
String.100.3=ST7 Metrowerks V1.1
String.100.4=Raisonance
String.101.0=STM8 Cosmic
String.102.0=C:\Program Files (x86)\COSMIC\FSE_Compilers\CXSTM8
String.103.0=
String.104.0=Hstm8
String.105.0=Lib
String.106.0=Debug
String.107.0=03_clock.elf
Int.108=0

[Root.Config.0.Settings.1]
String.6.0=2022,10,14,10,38,55
String.100.0=$(TargetFName)
String.101.0=
String.103.0=.\;inc;

[Root.Config.0.Settings.2]
String.2.0=
String.6.0=2022,10,14,10,38,55
String.100.0=STM8L151C8

[Root.Config.0.Settings.3]
String.2.0=Compiling $(InputFile)...
String.3.0=cxstm8 -iinc  -customDbg -customDebCompat -customOpt-no -customLst -l +mods0 -customC-pp $(ToolsetIncOpts) -cl$(IntermPath) -co$(IntermPath) $(InputFile) 
String.4.0=$(IntermPath)$(InputName).$(ObjectExt)
String.5.0=$(IntermPath)$(InputName).ls
String.6.0=2022,10,14,10,38,55

[Root.Config.0.Settings.4]
String.2.0=Assembling $(InputFile)...
String.3.0=castm8 -xx -l $(ToolsetIncOpts) -o$(IntermPath)$(InputName).$(ObjectExt) $(InputFile)
String.4.0=$(IntermPath)$(InputName).$(ObjectExt)
String.5.0=$(IntermPath)$(InputName).ls
String.6.0=2022,10,14,10,38,55

[Root.Config.0.Settings.5]
String.2.0=Running Pre-Link step
String.6.0=2022,10,14,10,38,55
String.8.0=

[Root.Config.0.Settings.6]
String.2.0=Running Linker
String.3.0=clnk -customMapFile -customMapFile-m $(OutputPath)$(TargetSName).map -fakeRunConv  -fakeInteger  -fakeSemiAutoGen  $(ToolsetLibOpts)  -o $(OutputPath)$(TargetSName).sm8 -fakeOutFile$(ProjectSFile).elf -customCfgFile $(OutputPath)$(TargetSName).lkf -fakeVectFilestm8_interrupt_vector.c    -fakeStartupcrtsi0.sm8 
String.3.1=cvdwarf $(OutputPath)$(TargetSName).sm8 -fakeVectAddr0x8000
String.4.0=$(OutputPath)$(TargetFName)
String.5.0=$(OutputPath)$(TargetSName).map $(OutputPath)$(TargetSName).st7 $(OutputPath)$(TargetSName).s19
String.6.0=2022,10,14,10,38,55
String.101.0=crtsi.st7
String.102.0=+seg .const -b 0x8080 -m 0xff80  -n .const -it 
String.102.1=+seg .text -a .const  -n .text 
String.102.2=+seg .eeprom -b 0x1000 -m 0x800  -n .eeprom 
String.102.3=+seg .bsct -b 0x0 -m 0x100  -n .bsct 
String.102.4=+seg .ubsct -a .bsct  -n .ubsct 
String.102.5=+seg .bit -a .ubsct  -n .bit -id 
String.102.6=+seg .share -a .bit  -n .share -is 
String.102.7=+seg .data -b 0x100 -m 0xcff  -n .data 
String.102.8=+seg .bss -a .data  -n .bss 
String.103.0=Code,Constants[0x8080-0x17fff]=.const,.text
String.103.1=Eeprom[0x1000-0x17ff]=.eeprom
String.103.2=Zero Page[0x0-0xff]=.bsct,.ubsct,.bit,.share
String.103.3=Ram[0x100-0xdfe]=.data,.bss
String.104.0=0xfff
Int.0=0
Int.1=0

[Root.Config.0.Settings.7]
String.2.0=Running Post-Build step
String.3.0=chex -o $(OutputPath)$(TargetSName).s19 $(OutputPath)$(TargetSName).sm8
String.6.0=2022,10,14,10,38,55

[Root.Config.0.Settings.8]
String.2.0=Performing Custom Build on $(InputFile)
String.6.0=2022,10,14,10,38,55

[Root.Config.1.Settings.0]
String.6.0=2022,10,14,10,38,55
String.100.0=ST Assembler Linker
String.100.1=ST7 Cosmic
String.100.2=STM8 Cosmic
String.100.3=ST7 Metrowerks V1.1
String.100.4=Raisonance
String.101.0=STM8 Cosmic
String.102.0=C:\Program Files (x86)\COSMIC\FSE_Compilers\CXSTM8
String.103.0=
String.104.0=Hstm8
String.105.0=Lib
String.106.0=Release
String.107.0=03_clock.elf
Int.108=0

[Root.Config.1.Settings.1]
String.6.0=2022,10,14,10,38,55
String.100.0=$(TargetFName)
String.101.0=
String.103.0=.\;inc;

[Root.Config.1.Settings.2]
String.2.0=
String.6.0=2022,10,14,10,38,55
String.100.0=STM8L151C8

[Root.Config.1.Settings.3]
String.2.0=Compiling $(InputFile)...
String.3.0=cxstm8 -iinc  +mods0 -customC-pp $(ToolsetIncOpts) -cl$(IntermPath) -co$(IntermPath) $(InputFile) 
String.4.0=$(IntermPath)$(InputName).$(ObjectExt)
String.5.0=$(IntermPath)$(InputName).ls
String.6.0=2022,10,14,10,38,55

[Root.Config.1.Settings.4]
String.2.0=Assembling $(InputFile)...
String.3.0=castm8 $(ToolsetIncOpts) -o$(IntermPath)$(InputName).$(ObjectExt) $(InputFile)
String.4.0=$(IntermPath)$(InputName).$(ObjectExt)
String.5.0=$(IntermPath)$(InputName).ls
String.6.0=2022,10,14,10,38,55

[Root.Config.1.Settings.5]
String.2.0=Running Pre-Link step
String.6.0=2022,10,14,10,38,55

[Root.Config.1.Settings.6]
String.2.0=Running Linker
String.3.0=clnk -fakeRunConv  -fakeInteger  -fakeSemiAutoGen  $(ToolsetLibOpts)  -o $(OutputPath)$(TargetSName).sm8 -fakeOutFile$(ProjectSFile).elf -customCfgFile $(OutputPath)$(TargetSName).lkf -fakeVectFilestm8_interrupt_vector.c    -fakeStartupcrtsi0.sm8 
String.3.1=cvdwarf $(OutputPath)$(TargetSName).sm8 -fakeVectAddr0x8000
String.4.0=$(OutputPath)$(TargetFName)
String.5.0=$(OutputPath)$(TargetSName).map $(OutputPath)$(TargetSName).st7 $(OutputPath)$(TargetSName).s19
String.6.0=2022,10,14,10,38,55
String.101.0=crtsi.st7
String.102.0=+seg .const -b 0x8080 -m 0xff80  -n .const -it 
String.102.1=+seg .text -a .const  -n .text 
String.102.2=+seg .eeprom -b 0x1000 -m 0x800  -n .eeprom 
String.102.3=+seg .bsct -b 0x0 -m 0x100  -n .bsct 
String.102.4=+seg .ubsct -a .bsct  -n .ubsct 
String.102.5=+seg .bit -a .ubsct  -n .bit -id 
String.102.6=+seg .share -a .bit  -n .share -is 
String.102.7=+seg .data -b 0x100 -m 0xcff  -n .data 
String.102.8=+seg .bss -a .data  -n .bss 
String.103.0=Code,Constants[0x8080-0x17fff]=.const,.text
String.103.1=Eeprom[0x1000-0x17ff]=.eeprom
String.103.2=Zero Page[0x0-0xff]=.bsct,.ubsct,.bit,.share
String.103.3=Ram[0x100-0xdfe]=.data,.bss
String.104.0=0xfff
Int.0=0
Int.1=0

[Root.Config.1.Settings.7]
String.2.0=Running Post-Build step
String.3.0=chex -o $(OutputPath)$(TargetSName).s19 $(OutputPath)$(TargetSName).sm8
String.6.0=2022,10,14,10,38,55

[Root.Config.1.Settings.8]
String.2.0=Performing Custom Build on $(InputFile)
String.6.0=2022,10,14,10,38,55

[Root.Source Files]
ElemType=Folder
PathName=Source Files
Child=Root.Source Files.asm.s
Next=Root.Include Files
Config.0=Root.Source Files.Config.0
Config.1=Root.Source Files.Config.1

[Root.Source Files.Config.0]
Settings.0.0=Root.Source Files.Config.0.Settings.0
Settings.0.1=Root.Source Files.Config.0.Settings.1
Settings.0.2=Root.Source Files.Config.0.Settings.2
Settings.0.3=Root.Source Files.Config.0.Settings.3

[Root.Source Files.Config.1]
Settings.1.0=Root.Source Files.Config.1.Settings.0
Settings.1.1=Root.Source Files.Config.1.Settings.1
Settings.1.2=Root.Source Files.Config.1.Settings.2
Settings.1.3=Root.Source Files.Config.1.Settings.3

[Root.Source Files.Config.0.Settings.0]
String.6.0=2022,10,14,10,38,55
String.8.0=Debug
Int.0=0
Int.1=0

[Root.Source Files.Config.0.Settings.1]
String.2.0=Compiling $(InputFile)...
String.3.0=cxstm8 -iinc  -customDbg -customDebCompat -customOpt-no -customLst -l +mods0 -customC-pp $(ToolsetIncOpts) -cl$(IntermPath) -co$(IntermPath) $(InputFile) 
String.4.0=$(IntermPath)$(InputName).$(ObjectExt)
String.5.0=$(IntermPath)$(InputName).ls
String.6.0=2022,10,14,10,38,55

[Root.Source Files.Config.0.Settings.2]
String.2.0=Assembling $(InputFile)...
String.3.0=castm8 -xx -l $(ToolsetIncOpts) -o$(IntermPath)$(InputName).$(ObjectExt) $(InputFile)
String.4.0=$(IntermPath)$(InputName).$(ObjectExt)
String.5.0=$(IntermPath)$(InputName).ls
String.6.0=2022,10,14,10,38,55

[Root.Source Files.Config.0.Settings.3]
String.2.0=Performing Custom Build on $(InputFile)
String.3.0=
String.4.0=
String.5.0=
String.6.0=2022,10,14,10,38,55

[Root.Source Files.Config.1.Settings.0]
String.6.0=2022,10,14,10,38,55
String.8.0=Release
Int.0=0
Int.1=0

[Root.Source Files.Config.1.Settings.1]
String.2.0=Compiling $(InputFile)...
String.3.0=cxstm8 -iinc  +mods0 -customC-pp $(ToolsetIncOpts) -cl$(IntermPath) -co$(IntermPath) $(InputFile) 
String.4.0=$(IntermPath)$(InputName).$(ObjectExt)
String.5.0=$(IntermPath)$(InputName).ls
String.6.0=2022,10,14,10,38,55

[Root.Source Files.Config.1.Settings.2]
String.2.0=Assembling $(InputFile)...
String.3.0=castm8 $(ToolsetIncOpts) -o$(IntermPath)$(InputName).$(ObjectExt) $(InputFile)
String.4.0=$(IntermPath)$(InputName).$(ObjectExt)
String.5.0=$(IntermPath)$(InputName).ls
String.6.0=2022,10,14,10,38,55

[Root.Source Files.Config.1.Settings.3]
String.2.0=Performing Custom Build on $(InputFile)
String.3.0=
String.4.0=
String.5.0=
String.6.0=2022,10,14,10,38,55

[Root.Source Files.asm.s]
ElemType=File
PathName=asm.s
Next=Root.Source Files.ht1621.c

[Root.Source Files.ht1621.c]
ElemType=File
PathName=ht1621.c
Next=Root.Source Files.main.c

[Root.Source Files.main.c]
ElemType=File
PathName=main.c
Next=Root.Source Files.stm8_interrupt_vector.c

[Root.Source Files.stm8_interrupt_vector.c]
ElemType=File
PathName=stm8_interrupt_vector.c

[Root.Include Files]
ElemType=Folder
PathName=Include Files
Child=Root.Include Files.inc\ht1621.h
Config.0=Root.Include Files.Config.0
Config.1=Root.Include Files.Config.1

[Root.Include Files.Config.0]
Settings.0.0=Root.Include Files.Config.0.Settings.0
Settings.0.1=Root.Include Files.Config.0.Settings.1
Settings.0.2=Root.Include Files.Config.0.Settings.2
Settings.0.3=Root.Include Files.Config.0.Settings.3

[Root.Include Files.Config.1]
Settings.1.0=Root.Include Files.Config.1.Settings.0
Settings.1.1=Root.Include Files.Config.1.Settings.1
Settings.1.2=Root.Include Files.Config.1.Settings.2
Settings.1.3=Root.Include Files.Config.1.Settings.3

[Root.Include Files.Config.0.Settings.0]
String.6.0=2022,10,14,10,38,55
String.8.0=Debug
Int.0=0
Int.1=0

[Root.Include Files.Config.0.Settings.1]
String.2.0=Compiling $(InputFile)...
String.3.0=cxstm8 -iinc  -customDbg -customDebCompat -customOpt-no -customLst -l +mods0 -customC-pp $(ToolsetIncOpts) -cl$(IntermPath) -co$(IntermPath) $(InputFile) 
String.4.0=$(IntermPath)$(InputName).$(ObjectExt)
String.5.0=$(IntermPath)$(InputName).ls
String.6.0=2022,10,14,10,38,55

[Root.Include Files.Config.0.Settings.2]
String.2.0=Assembling $(InputFile)...
String.3.0=castm8 -xx -l $(ToolsetIncOpts) -o$(IntermPath)$(InputName).$(ObjectExt) $(InputFile)
String.4.0=$(IntermPath)$(InputName).$(ObjectExt)
String.5.0=$(IntermPath)$(InputName).ls
String.6.0=2022,10,14,10,38,55

[Root.Include Files.Config.0.Settings.3]
String.2.0=Performing Custom Build on $(InputFile)
String.3.0=
String.4.0=
String.5.0=
String.6.0=2022,10,14,10,38,55

[Root.Include Files.Config.1.Settings.0]
String.6.0=2022,10,14,10,38,55
String.8.0=Release
Int.0=0
Int.1=0

[Root.Include Files.Config.1.Settings.1]
String.2.0=Compiling $(InputFile)...
String.3.0=cxstm8 -iinc  +mods0 -customC-pp $(ToolsetIncOpts) -cl$(IntermPath) -co$(IntermPath) $(InputFile) 
String.4.0=$(IntermPath)$(InputName).$(ObjectExt)
String.5.0=$(IntermPath)$(InputName).ls
String.6.0=2022,10,14,10,38,55

[Root.Include Files.Config.1.Settings.2]
String.2.0=Assembling $(InputFile)...
String.3.0=castm8 $(ToolsetIncOpts) -o$(IntermPath)$(InputName).$(ObjectExt) $(InputFile)
String.4.0=$(IntermPath)$(InputName).$(ObjectExt)
String.5.0=$(IntermPath)$(InputName).ls
String.6.0=2022,10,14,10,38,55

[Root.Include Files.Config.1.Settings.3]
String.2.0=Performing Custom Build on $(InputFile)
String.3.0=
String.4.0=
String.5.0=
String.6.0=2022,10,14,10,38,55

[Root.Include Files.inc\ht1621.h]
ElemType=File
PathName=inc\ht1621.h
Next=Root.Include Files.inc\main.h

[Root.Include Files.inc\main.h]
ElemType=File
PathName=inc\main.h